<?xml version="1.0" encoding="utf-8"?>
<!-- Generator: Adobe Illustrator 16.0.3, SVG Export Plug-In . SVG Version: 6.00 Build 0)  -->
<!DOCTYPE svg PUBLIC "-//W3C//DTD SVG 1.1//EN" "http://www.w3.org/Graphics/SVG/1.1/DTD/svg11.dtd">
<svg version="1.1" id="Layer_1" xmlns="http://www.w3.org/2000/svg" xmlns:xlink="http://www.w3.org/1999/xlink" x="0px" y="0px"
	 width="128px" height="85px" viewBox="0 0 128 85" enable-background="new 0 0 128 85" xml:space="preserve">
<path fill="#FFFFFF" d="M128,75c0,5.5-4.5,10-10,10H10C4.5,85,0,80.5,0,75V10C0,4.5,4.5,0,10,0h108c5.5,0,10,4.5,10,10V75z"/>
<g>
	<polyline fill="#214288" points="93.484,49.657 96.889,32.14 90.982,32.14 86.479,55.495 97.322,55.495 98.389,49.657 	"/>
	<path fill="#214288" d="M110.968,37.313c0.968,0,2.368,0.233,3.235,0.534l1.002-5.372c-1.235-0.201-2.569-0.367-4.07-0.367
		c-6.439,0-9.476,3.871-9.476,8.174c0,5.639,5.738,5.572,5.738,7.974c0,1.234-0.834,1.868-2.669,1.868
		c-1.268,0-3.036-0.3-4.07-0.667l-1.102,5.772c1.201,0.233,2.87,0.4,4.605,0.4c5.738,0,9.808-3.837,9.808-8.474
		c0-5.505-5.771-5.572-5.771-8.007C108.198,38.079,108.898,37.313,110.968,37.313"/>
	<path fill="#214288" d="M81.774,32.14c-8.876,0-14.581,6.64-14.581,14.781c0,5.105,2.703,8.641,9.476,8.641
		c2.669,0,5.505-0.467,7.774-1.468l2.168-11.276h-5.939l-1.301,6.873c-0.533,0.133-1.134,0.167-1.602,0.167
		c-3.003,0-4.07-1.635-4.07-3.804c0-4.07,2.47-8.274,7.541-8.274c1.434,0,3.002,0.267,4.404,0.701c0.133,0.033,0.3,0.1,0.434,0.134
		c0.5,0.167,0.934,0.367,1.234,0.534l1.201-6.106C86.512,32.507,84.043,32.14,81.774,32.14"/>
	<path fill="#FABF13" d="M37.232,32.207l-1.602,7.774h11.01c-9.141,13.513-27.258,11.21-32.063,5.605
		c-4.104-4.805-0.566-13.079,11.678-18.217C14.145,31.04,7.372,40.749,11.342,47.254c4.537,7.374,18.651,10.477,31.195,6.874
		c8.375-2.97,11.945-7.073,13.279-9.309l-2.102,10.743h8.24l4.471-23.355"/>
</g>
</svg>
