<?xml version="1.0" encoding="utf-8"?>
<!-- Generator: Adobe Illustrator 16.0.3, SVG Export Plug-In . SVG Version: 6.00 Build 0)  -->
<!DOCTYPE svg PUBLIC "-//W3C//DTD SVG 1.1//EN" "http://www.w3.org/Graphics/SVG/1.1/DTD/svg11.dtd">
<svg version="1.1" id="Layer_1" xmlns="http://www.w3.org/2000/svg" xmlns:xlink="http://www.w3.org/1999/xlink" x="0px" y="0px"
	 width="128px" height="85px" viewBox="0 0 128 85" enable-background="new 0 0 128 85" xml:space="preserve">
<path fill="#FFFFFF" d="M128,75c0,5.5-4.5,10-10,10H10C4.5,85,0,80.5,0,75V10C0,4.5,4.5,0,10,0h108c5.5,0,10,4.5,10,10V75z"/>
<g>
	<path fill="#010101" d="M39.574,71.314V67.33c0-1.523-0.934-2.52-2.523-2.52c-0.798,0-1.664,0.264-2.257,1.127
		c-0.463-0.73-1.133-1.127-2.129-1.127c-0.66,0-1.321,0.201-1.852,0.93v-0.798h-1.4v6.372h1.4v-3.516
		c0-1.132,0.591-1.665,1.527-1.665c0.927,0,1.39,0.602,1.39,1.665v3.516h1.395v-3.516c0-1.132,0.665-1.665,1.523-1.665
		c0.936,0,1.398,0.602,1.398,1.665v3.516H39.574L39.574,71.314z M60.21,64.942h-2.256V63.02h-1.39v1.922h-1.262v1.261h1.262v2.918
		c0,1.461,0.592,2.326,2.188,2.326c0.599,0,1.262-0.197,1.725-0.463l-0.394-1.193c-0.404,0.264-0.867,0.326-1.2,0.326
		c-0.663,0-0.929-0.395-0.929-1.058v-2.856h2.256V64.942L60.21,64.942z M72.027,64.811c-0.798,0-1.331,0.397-1.66,0.93v-0.798
		h-1.395v6.372h1.395v-3.583c0-1.064,0.468-1.66,1.325-1.66c0.266,0,0.602,0.063,0.868,0.132l0.394-1.331
		C72.688,64.811,72.294,64.811,72.027,64.811L72.027,64.811L72.027,64.811z M54.169,65.474c-0.66-0.463-1.586-0.664-2.581-0.664
		c-1.597,0-2.662,0.792-2.662,2.053c0,1.064,0.798,1.666,2.194,1.862l0.665,0.069c0.729,0.129,1.124,0.326,1.124,0.661
		c0,0.463-0.529,0.798-1.459,0.798c-0.926,0-1.655-0.335-2.119-0.667l-0.67,1.062c0.73,0.532,1.726,0.798,2.722,0.798
		c1.86,0,2.925-0.864,2.925-2.061c0-1.123-0.867-1.724-2.191-1.921l-0.667-0.069c-0.594-0.066-1.063-0.197-1.063-0.593
		c0-0.469,0.469-0.732,1.201-0.732c0.791,0,1.586,0.33,1.99,0.527L54.169,65.474L54.169,65.474z M91.206,64.811
		c-0.798,0-1.327,0.397-1.655,0.93v-0.798h-1.399v6.372h1.399v-3.583c0-1.064,0.463-1.66,1.324-1.66
		c0.265,0,0.597,0.063,0.864,0.132l0.397-1.331C91.871,64.811,91.472,64.811,91.206,64.811L91.206,64.811L91.206,64.811z
		 M73.417,68.125c0,1.93,1.331,3.321,3.391,3.321c0.926,0,1.587-0.197,2.257-0.729l-0.67-1.131
		c-0.527,0.402-1.055,0.599-1.656,0.599c-1.126,0-1.921-0.799-1.921-2.06c0-1.193,0.795-1.991,1.921-2.055
		c0.601,0,1.129,0.202,1.656,0.596l0.67-1.124c-0.67-0.532-1.331-0.732-2.257-0.732C74.748,64.811,73.417,66.203,73.417,68.125
		L73.417,68.125L73.417,68.125z M86.298,68.125v-3.183h-1.399v0.798c-0.463-0.601-1.124-0.93-1.99-0.93
		c-1.788,0-3.184,1.393-3.184,3.315c0,1.93,1.396,3.321,3.184,3.321c0.936,0,1.597-0.335,1.99-0.926v0.794h1.399V68.125z
		 M81.183,68.125c0-1.124,0.729-2.055,1.929-2.055c1.126,0,1.925,0.862,1.925,2.055c0,1.134-0.798,2.06-1.925,2.06
		C81.912,70.117,81.183,69.259,81.183,68.125L81.183,68.125z M64.527,64.811c-1.863,0-3.184,1.324-3.184,3.315
		s1.321,3.321,3.253,3.321c0.926,0,1.853-0.267,2.582-0.864l-0.66-0.996c-0.533,0.402-1.193,0.667-1.862,0.667
		c-0.858,0-1.726-0.404-1.922-1.528h4.711v-0.532C67.514,66.134,66.321,64.811,64.527,64.811L64.527,64.811L64.527,64.811z
		 M64.527,66.007c0.859,0,1.458,0.532,1.593,1.527h-3.317C62.931,66.667,63.532,66.007,64.527,66.007L64.527,66.007z M99.108,68.125
		v-5.707H97.71v3.322c-0.462-0.601-1.123-0.93-1.99-0.93c-1.794,0-3.183,1.393-3.183,3.315c0,1.93,1.389,3.321,3.183,3.321
		c0.927,0,1.596-0.335,1.99-0.926v0.794h1.398V68.125z M93.996,68.125c0-1.124,0.729-2.055,1.921-2.055
		c1.133,0,1.931,0.862,1.931,2.055c0,1.134-0.797,2.06-1.931,2.06C94.725,70.117,93.996,69.259,93.996,68.125L93.996,68.125z
		 M47.399,68.125v-3.183h-1.391v0.798c-0.463-0.601-1.13-0.93-1.99-0.93c-1.794,0-3.183,1.393-3.183,3.315
		c0,1.93,1.389,3.321,3.183,3.321c0.926,0,1.594-0.335,1.99-0.926v0.794h1.391V68.125z M42.225,68.125
		c0-1.124,0.729-2.055,1.923-2.055c1.132,0,1.931,0.862,1.931,2.055c0,1.134-0.798,2.06-1.931,2.06
		C42.954,70.117,42.225,69.259,42.225,68.125z"/>
	<rect x="53.706" y="16.559" fill="#F26122" width="20.91" height="37.562"/>
	<path fill="#EA1D25" d="M55.037,35.338c0-7.63,3.583-14.4,9.091-18.779c-4.045-3.19-9.16-5.112-14.737-5.112
		C36.183,11.447,25.5,22.13,25.5,35.338c0,13.213,10.683,23.898,23.891,23.898c5.577,0,10.692-1.925,14.737-5.115
		C58.62,49.811,55.037,42.974,55.037,35.338z"/>
	<path fill="#F69E1F" d="M102.826,35.338c0,13.213-10.69,23.898-23.899,23.898c-5.571,0-10.683-1.925-14.734-5.115
		c5.578-4.375,9.097-11.146,9.097-18.783c0-7.63-3.587-14.4-9.097-18.779c4.051-3.19,9.163-5.112,14.734-5.112
		C92.136,11.447,102.826,22.199,102.826,35.338z"/>
</g>
</svg>
