<?xml version="1.0" encoding="utf-8"?>
<!-- Generator: Adobe Illustrator 16.0.0, SVG Export Plug-In . SVG Version: 6.00 Build 0)  -->
<!DOCTYPE svg PUBLIC "-//W3C//DTD SVG 1.1//EN" "http://www.w3.org/Graphics/SVG/1.1/DTD/svg11.dtd">
<svg version="1.1" id="Layer_1" xmlns="http://www.w3.org/2000/svg" xmlns:xlink="http://www.w3.org/1999/xlink" x="0px" y="0px"
	 width="315px" height="315px" viewBox="0 0 315 315" enable-background="new 0 0 315 315" xml:space="preserve">
<g>
	<g>
		<path fill="#EEF2F4" d="M51.6,61.356c1.985-3.805,4.168-7.553,6.264-10.753c4.537-6.924,14.492-14.741,18.606-18.479
			c4.115-3.738,10.313-8.278,16.132-11.129c5.819-2.851,16.699-6.13,22.264-8.493c5.567-2.363,14.297-3.078,20.543-1.991
			c6.243,1.087,13.484,1.454,20.587,2.676c7.103,1.223,14.542,4.172,20.759,7.1c6.214,2.929,19.331,11.621,25.367,17.861
			c6.037,6.241,11.331,12.715,13.218,17.414c1.887,4.697,7.86,14.623,9.823,22.146c1.964,7.523,3.282,16.879,3.581,21.06
			c0.299,4.181-0.751,22.829-3.096,30.895s-4.681,15.519-8.073,20.25l-1.399,3.218c-1.985,3.807-4.17,7.554-6.264,10.753
			c-4.538,6.924-14.492,14.74-18.607,18.479c-4.114,3.74-9.234,8.813-15.054,11.663c-5.819,2.85-17.776,5.597-23.343,7.961
			c-5.566,2.363-14.297,3.077-20.542,1.991c-6.244-1.087-13.484-1.452-20.586-2.678c-7.104-1.223-14.544-4.171-20.76-7.1
			c-6.213-2.927-19.331-11.62-25.369-17.862c-6.036-6.24-11.331-12.714-13.216-17.411c-1.888-4.699-7.862-14.622-9.824-22.147
			c-1.962-7.523-3.281-16.879-3.58-21.06c-0.299-4.179,0.749-22.829,3.095-30.895c2.345-8.066,4.68-15.518,8.073-20.251L51.6,61.356
			z"/>
	</g>
	<g>
		<polyline fill="#EEF2F4" points="191.568,183.069 203.256,199.05 206.438,196.802 215.58,208.619 212.853,210.943 226.69,219.843 
			275.133,292.898 253.4,308.257 204.522,242.908 197.496,223.235 194.393,225.029 186.31,212.465 189.489,210.217 177.785,192.809 
					"/>
	</g>
	<g>
		<path fill="#1D1D1B" d="M253.401,309.888c-0.497,0-0.987-0.227-1.307-0.654l-48.878-65.349c-0.098-0.13-0.176-0.274-0.23-0.428
			l-6.368-17.83l-1.409,0.814c-0.754,0.436-1.716,0.202-2.188-0.529l-8.083-12.564c-0.472-0.734-0.282-1.711,0.431-2.215
			l1.879-1.328l-10.815-16.086c-0.503-0.748-0.304-1.761,0.443-2.264c0.75-0.503,1.763-0.303,2.264,0.443l11.704,17.408
			c0.494,0.735,0.312,1.73-0.412,2.242l-1.904,1.347l6.396,9.943l1.757-1.016c0.419-0.243,0.923-0.285,1.379-0.119
			c0.454,0.167,0.811,0.527,0.974,0.982l6.943,19.441l47.78,63.881l19.143-13.528l-47.378-71.451l-13.55-8.714
			c-0.435-0.279-0.711-0.748-0.745-1.263c-0.035-0.515,0.176-1.016,0.569-1.351l1.543-1.315l-7.234-9.352l-1.906,1.347
			c-0.728,0.514-1.731,0.351-2.258-0.369l-11.688-15.98c-0.532-0.728-0.373-1.748,0.354-2.279c0.726-0.533,1.746-0.374,2.279,0.354
			l10.74,14.686l1.871-1.322c0.712-0.505,1.696-0.356,2.231,0.334l9.143,11.817c0.533,0.688,0.431,1.675-0.232,2.239l-1.055,0.899
			l11.989,7.711c0.19,0.122,0.353,0.282,0.478,0.471l48.442,73.056c0.487,0.735,0.302,1.725-0.418,2.233l-21.732,15.358
			C254.056,309.791,253.728,309.888,253.401,309.888z"/>
	</g>
	<g>
		<path fill="#B9BDBF" d="M183.465,188.488c0,0,2.639,5.205,4.509,7.877c1.871,2.671,7.01,9.9,7.544,11.235
			c0.535,1.336,0.822,5.566,2.568,7.383c4.154,4.325,5.03,4.232,6.099,6.902c1.069,2.673,4.499,13.757,7.706,17.497
			c3.205,3.739,47.349,65.165,47.349,65.165l-6.482,4.35l-48.876-65.348l-7.027-19.672l-3.101,1.795l-8.086-12.566l3.181-2.248
			l-12.061-18.361L183.465,188.488z"/>
	</g>
	<g>
		<path fill="#1D1D1B" d="M253.395,310.011c-0.61,0-1.211-0.277-1.604-0.802l-48.879-65.349c-0.12-0.16-0.215-0.337-0.282-0.525
			l-6.219-17.412l-1.026,0.594c-0.925,0.533-2.105,0.246-2.683-0.649l-8.083-12.565c-0.58-0.9-0.347-2.098,0.527-2.716l1.585-1.119
			l-10.615-15.786c-0.616-0.917-0.372-2.159,0.544-2.776c0.917-0.614,2.158-0.373,2.776,0.544l11.705,17.408
			c0.605,0.902,0.381,2.123-0.506,2.75l-1.617,1.142l6.016,9.351l1.452-0.84c0.514-0.297,1.132-0.351,1.69-0.146
			c0.557,0.205,0.994,0.646,1.194,1.205l6.925,19.388l47.532,63.549l18.556-13.112l-47.137-71.088l-13.485-8.672
			c-0.532-0.343-0.871-0.917-0.913-1.549c-0.043-0.631,0.216-1.245,0.698-1.656l1.276-1.088l-6.805-8.793l-1.618,1.143
			c-0.892,0.629-2.123,0.428-2.768-0.453l-11.688-15.979c-0.652-0.892-0.458-2.143,0.434-2.795c0.891-0.653,2.144-0.457,2.795,0.434
			l10.527,14.392l1.575-1.112c0.874-0.616,2.08-0.438,2.735,0.41l9.144,11.815c0.653,0.844,0.528,2.053-0.285,2.746l-0.678,0.578
			l11.572,7.441c0.232,0.15,0.432,0.347,0.585,0.577l48.442,73.056c0.598,0.901,0.37,2.114-0.513,2.739l-21.731,15.356
			C254.196,309.892,253.793,310.011,253.395,310.011z"/>
	</g>
	<g>
		<path fill="#FFFFFF" d="M196.909,120.585c-0.344,0-0.692-0.046-1.04-0.142c-2.066-0.573-3.277-2.712-2.705-4.779
			c0.029-0.106,2.948-10.731,3.255-19.032c0.396-10.689-1.416-14.473-1.435-14.51l0.063,0.114l6.715-3.904
			c0.487,0.839,2.897,5.678,2.419,18.587c-0.341,9.223-3.402,20.351-3.532,20.82C200.172,119.458,198.61,120.585,196.909,120.585z"
			/>
	</g>
	<g>
		<path fill="#FFFFFF" d="M189.753,140.629c-1.565,0-3.036-0.807-4.035-2.212c-1.337-1.882-1.749-4.693-1.002-6.837
			c1.002-2.872,3.682-4.18,5.747-4.18c0.791,0,1.496,0.188,2.099,0.56c4.408,2.717,4.008,6.128,3.631,7.469
			c-0.858,3.053-4.074,5.191-6.423,5.2H189.753z"/>
	</g>
	<g>
		<path fill="#B9BDBF" d="M94.205,19.299c0,0-0.882,4.832-6.337,9.238c-6.48,5.235-9.851,7.761-17.947,17.947
			C62.194,56.206,60,62.549,55.477,72.201c-4.136,8.824-7.07,24.613-7.539,34.684c-0.574,12.305,4.374,42.213,20.81,57.608
			c16.582,15.529,29.832,27.437,64.134,32.145c0,0,8.017,1.415,4.244,7.076c0,0-24.525,0.472-38.675-6.604
			c-14.149-7.075-33.016-16.507-43.391-32.542c-10.377-16.037-17.243-30.125-17.583-49.964c-0.34-19.84,2.835-38.893,12.566-54.364
			C59.776,44.768,77.697,28.261,94.205,19.299"/>
	</g>
	<g>
		<path fill="#1D1D1B" d="M137.07,205.355c-2.377,0-4.599-0.177-6.603-0.524c-2.98-0.52-6.185-0.87-9.578-1.241
			c-3.59-0.393-7.302-0.798-11.005-1.438c-6.128-1.055-13.285-3.498-21.271-7.261c-6.047-2.848-19.482-11.591-25.954-18.28
			c-4.98-5.149-11.389-12.461-13.636-18.057c-0.61-1.518-1.696-3.666-2.955-6.151c-2.495-4.93-5.6-11.064-6.948-16.237
			c-2.002-7.675-3.334-17.147-3.64-21.421c-0.325-4.551,0.792-23.417,3.169-31.597c2.339-8.047,4.732-15.683,8.242-20.68
			l1.317-3.027c0.019-0.043,0.039-0.085,0.061-0.127c2.026-3.882,4.227-7.66,6.364-10.924c3.775-5.762,11.047-12.028,15.859-16.175
			c1.199-1.033,2.255-1.943,3.075-2.688c3.829-3.478,10.2-8.311,16.598-11.445c3.513-1.721,8.621-3.525,13.56-5.27
			c3.37-1.19,6.554-2.314,8.803-3.27c3.961-1.681,9.45-2.646,15.059-2.646c2.379,0,4.603,0.177,6.608,0.527
			c2.978,0.518,6.183,0.868,9.576,1.239c3.59,0.393,7.303,0.798,11.006,1.436c6.132,1.056,13.29,3.499,21.272,7.262
			c6.051,2.851,19.488,11.595,25.954,18.279c4.98,5.15,11.39,12.463,13.637,18.059c0.609,1.518,1.695,3.665,2.954,6.151
			c2.494,4.929,5.599,11.063,6.948,16.234c2.002,7.675,3.333,17.147,3.639,21.422c0.325,4.55-0.791,23.417-3.168,31.595
			c-2.341,8.048-4.733,15.686-8.243,20.681l-1.316,3.027c-0.019,0.043-0.039,0.085-0.061,0.127
			c-2.021,3.875-4.223,7.653-6.366,10.924c-3.773,5.761-11.045,12.027-15.855,16.175c-1.2,1.034-2.257,1.944-3.078,2.69
			c-0.511,0.465-1.038,0.949-1.58,1.448c-3.825,3.522-8.586,7.906-13.938,10.528c-3.395,1.662-8.585,3.23-13.605,4.746
			c-3.845,1.161-7.476,2.258-9.835,3.261C148.174,204.392,142.684,205.355,137.07,205.355z M51.849,61.102l-1.371,3.152
			c-0.056,0.129-0.126,0.252-0.208,0.368c-3.211,4.479-5.512,11.848-7.778,19.644c-2.287,7.864-3.299,26.299-3.02,30.194
			c0.295,4.121,1.582,13.268,3.52,20.697c1.241,4.758,4.238,10.681,6.646,15.44c1.3,2.569,2.423,4.788,3.098,6.466
			c1.564,3.897,6.11,9.852,12.799,16.767c5.949,6.15,18.933,14.688,24.783,17.442c7.661,3.61,14.473,5.944,20.247,6.938
			c3.582,0.618,7.231,1.017,10.76,1.402c3.458,0.379,6.725,0.735,9.829,1.276c1.753,0.305,3.799,0.466,5.917,0.466
			c5.021,0,10.068-0.87,13.5-2.327c2.559-1.087,6.291-2.215,10.243-3.408c4.867-1.47,9.899-2.99,13.002-4.509
			c4.831-2.366,9.165-6.357,12.989-9.879c0.548-0.505,1.082-0.996,1.6-1.467c0.842-0.765,1.925-1.699,3.155-2.76
			c4.642-4.001,11.656-10.047,15.122-15.336c2.061-3.146,4.181-6.782,6.133-10.52l1.371-3.152c0.057-0.129,0.126-0.252,0.209-0.367
			c3.209-4.478,5.511-11.847,7.777-19.645c2.286-7.863,3.298-26.298,3.02-30.193c-0.295-4.122-1.581-13.269-3.52-20.698
			c-1.24-4.756-4.238-10.679-6.646-15.438c-1.3-2.569-2.423-4.789-3.097-6.467c-1.565-3.897-6.111-9.853-12.8-16.769
			c-5.944-6.145-18.931-14.684-24.784-17.442c-7.657-3.609-14.469-5.944-20.246-6.938c-3.582-0.617-7.232-1.016-10.762-1.402
			c-3.458-0.378-6.723-0.735-9.827-1.275c-1.755-0.306-3.803-0.467-5.922-0.467c-5.017,0-10.063,0.87-13.496,2.327
			c-2.363,1.004-5.603,2.148-9.034,3.36c-4.832,1.707-9.829,3.471-13.132,5.089c-6.022,2.95-12.042,7.521-15.667,10.813
			c-0.841,0.764-1.924,1.698-3.154,2.758c-4.642,4-11.657,10.046-15.124,15.337C55.925,53.72,53.806,57.356,51.849,61.102z"/>
	</g>
</g>
</svg>
